Serverden veri çekebeilmek icin Sevice classı olustururuz. Service Classı onune de ortak olması 
icin iterface classo olustururuz ki baska sevice classları ıcınden de bu interface icindeki classları 
override edip baska sınıflar kullanabilsin 

Reqres'den bize assagıdaki gibi sadece modeller donmuyor modeller içinde page,total gibi başka veriler
de dönüyor solayısıyla biz gelen veri içinden data'ya ulaşıp data'yı parse edecegiz.        

{
    "page": 2,
    "per_page": 6,
    "total": 12,
    "total_pages": 2,
    "data": [
        {
            "id": 7,
            "email": "michael.lawson@reqres.in",
            "first_name": "Michael",
            "last_name": "Lawson",
            "avatar": "https://reqres.in/img/faces/7-image.jpg"
        },
        {
            "id": 12,
            "email": "rachel.howell@reqres.in",
            "first_name": "Rachel",
            "last_name": "Howell",
            "avatar": "https://reqres.in/img/faces/12-image.jpg"
        }
    ],
    "support": {
        "url": "https://reqres.in/#support-heading",
        "text": "To keep ReqRes free, contributions towards server costs are appreciated!"
    }
}